hormone
…
##yue’s interest: phase, lh, estrogen, appetite, fatigue

my_int=
  hormone|>
  select(id,phase, lh, estrogen, appetite, fatigue )
my_int

## # A tibble: 5,659 × 6
##       id phase         lh estrogen appetite fatigue        
##    <dbl> <chr>      <dbl>    <dbl> <chr>    <chr>          
##  1     1 Follicular   2.9     94.2 Low      High           
##  2     1 Follicular   1.2    226.  Low      High           
##  3     1 Follicular   3.5    277.  Very Low Very High      
##  4     1 Fertility    1.8    322.  Low      High           
##  5     1 Fertility    4.6    245.  Very Low High           
##  6     1 Fertility    5      365.  Low      Moderate       
##  7     1 Fertility    5      365.  Moderate Low            
##  8     1 Fertility    5      365.  Moderate Low            
##  9     1 Fertility    4.6    222.  Very Low Very Low/Little
## 10     1 Luteal       3       63.6 Very Low Very Low/Little
## # ℹ 5,649 more rows
